{
	"config": {
		"ScriptPath": "/w",
		"Logos": { "1x": "./resources/assets/wiki.png" },
		"EnableEmail": true,
		"EnableUserEmail": true,
		"EmergencyContact": "apache@localhost",
		"PasswordSender": "apache@localhost",
		"EnotifUserTalk": false,
		"EnotifWatchlist": false,
		"EmailAuthentication": true,
		"DBtype": "mysql",
		"DBserver": "database",
		"DBname": "my_wiki",
		"SQLiteDataDir": "/var/www/html/w/cache/sqlite",
		"MemCachedServers": [],
		"EnableUploads": false,
		"UseInstantCommons": false,
		"Pingback": false,
		"ShellLocale": "C.UTF-8",
		"LanguageCode": "en",
		"AuthenticationTokenVersion": "1",
		"RightsPage": "",
		"RightsUrl": "",
		"RightsText": "",
		"RightsIcon": "",
		"Diff3": "/usr/bin/diff3",
		"DefaultSkin": "timeless"
	},
	"config-sources-NOT-YET": {
		"*": { "factory": "GlobalVarConfig::newInstance" },
		"main": { "composition": "fallback", "configs": [ "secrets", "site", "base" ] },
		"secrets": { "file":  "../mediawiki-config-experiment/config/secrets.json" },
		"db-lb": { "file":  "../mediawiki-config-experiment/config/db.json" },
		"db": { "composition": "fallback", "configs": [ "etcd", "secrets", "db-lb", "base" ] }
	},
	"skins": [ "Timeless" ],
	"extensions": [ "DisplayTitle" ]
}
